…
pi_2019
#> # A tibble: 1,221 x 5
#>    siteID speciesID spp_cover total_cover       pi
#>    <chr>  <chr>         <dbl>       <dbl>    <dbl>
#>  1 ARM    amare           1.5        3172 0.000473
#>  2 ARM    andge          82.5        3172 0.0260  
#>  3 ARM    aquca           6          3172 0.00189 
#>  4 ARM    ascsy          60          3172 0.0189  
#>  5 ARM    asctu           3          3172 0.000946
#>  6 ARM    boucu          42          3172 0.0132  
#>  7 ARM    broin         162.         3172 0.0512  
#>  8 ARM    carvu          18          3172 0.00567 
#>  9 ARM    chafa           6          3172 0.00189 
#> 10 ARM    cheal          15          3172 0.00473 
#> # ... with 1,211 more rows
```
…
``` r
data("species_list")

site_pi <- pi_2019 %>%
  left_join(., species_list, by = "speciesID") %>%
  group_by(siteID, group_simple) %>%
  summarize(grp_pi = sum(pi)) %>%
  # filter out the NAs, which were "unknown" plants that were never identified 
  filter(!(is.na(group_simple))) %>%
  ungroup()

site_pi
#> # A tibble: 124 x 3
#>    siteID group_simple  grp_pi
#>    <chr>  <chr>          <dbl>
#>  1 ARM    prairie forb  0.518 
#>  2 ARM    prairie grass 0.257 
#>  3 ARM    weedy forb    0.139 
#>  4 ARM    weedy grass   0.0853
#>  5 BUE    prairie forb  0.260 
#>  6 BUE    prairie grass 0.199 
#>  7 BUE    weedy forb    0.253 
#>  8 BUE    weedy grass   0.208 
#>  9 DMW    prairie forb  0.0527
#> 10 DMW    prairie grass 0.694 
#> # ... with 114 more rows
```
…
